[
    {"key":1,"value":250},
    {"key":2,"value":320},
    {"key":3,"value":380},
    {"key":4,"value":330},
    {"key":5,"value":420},
    {"key":6,"value":250},
    {"key":7,"value":180},
    {"key":8,"value":250},
    {"key":9,"value":100},
    {"key":10,"value":300}
    ]